Exploratory Data Analysis for AirBnB
…
Number of missing values in L:

## [1] 279634

miss_var_summary(L)

## # A tibble: 95 x 3
##    variable                     n_miss pct_miss
##    <chr>                         <int>    <dbl>
##  1 neighbourhood_group_cleansed  52725    100  
##  2 has_availability              52725    100  
##  3 square_feet                   50218     95.2
##  4 review_scores_checkin         15579     29.5
##  5 review_scores_accuracy        15575     29.5
##  6 review_scores_cleanliness     15566     29.5
##  7 review_scores_location        15560     29.5
##  8 review_scores_value           15559     29.5
##  9 review_scores_communication   15543     29.5
## 10 review_scores_rating          15454     29.3
## # ... with 85 more rows
…
